module github.com/wowchemy/starter-academic

go 1.15

require (
	github.com/wowchemy/wowchemy-hugo-themes/modules/wowchemy-plugin-netlify v1.0.1-0.20220628192901-bfb7d8e3f3e0
	github.com/wowchemy/wowchemy-hugo-themes/modules/wowchemy-plugin-netlify-cms v1.0.1-0.20220628192901-bfb7d8e3f3e0
	github.com/wowchemy/wowchemy-hugo-themes/modules/wowchemy/v5 v5.6.1-0.20220628192901-bfb7d8e3f3e0
)
